*** Darwin 15x8 ***
Turn = 0.
  01234567
0 .tr.....
1 ..hf...t
2 h..f.hhr
3 .rt....t
4 ........
5 .....f..
6 tf......
7 ....ht..
8 ........
9 .h.ft..r
0 ....fh..
1 .h.....t
2 .r..r..f
3 ....h..h
4 thf.h...

Turn = 1.
  01234567
0 .tr.....
1 ...f...t
2 .rrf.hhr
3 h.t.....
4 .......r
5 .....f..
6 tf..h...
7 .....t..
8 ........
9 ..hfth.r
0 ....f...
1 .h.....t
2 r...r..f
3 ....r...
4 thf.r..h

Turn = 2.
  01234567
0 .t......
1 .rrf...t
2 ..rf.hh.
3 .......r
4 h.r.....
5 ....hf.r
6 tt......
7 .....t..
8 .....h..
9 ..htt...
0 ....f..r
1 .......t
2 rh..r..f
3 ....r...
4 thfr...h

Turn = 3.
  01234567
0 .t......
1 .trf...t
2 ...f.h.h
3 ..r.....
4 ....h..r
5 h.r..f..
6 tt.....r
7 .....t..
8 .....t..
9 ..htt...
0 ....f..r
1 r......r
2 ...r...r
3 .h.r....
4 thrr...h

Turn = 4.
  01234567
0 .t......
1 .rrf...t
2 ...f..hh
3 ....h...
4 ..r.....
5 t....f.r
6 ttt.....
7 .....t.r
8 .....t..
9 ..htt...
0 r...t..r
1 .......r
2 ..r....r
3 .hr.....
4 ttrr...h

Turn = 5.
  01234567
0 .t......
1 .r.f...t
2 .r.fh.hh
3 ........
4 ........
5 t.r..f..
6 ttt....r
7 .....t..
8 .....t.r
9 r.ttt...
0 ....t..r
1 ......r.
2 .r.....r
3 .rr.....
4 ttrr...h

*** Darwin 13x8 ***
Turn = 0.
  01234567
0 ....h...
1 .r..t...
2 f.......
3 t....t.t
4 .htt.fr.
5 h.fh...r
6 .f..h.f.
7 .t..hf.t
8 .t.rthf.
9 t.....ff
0 ....tf.h
1 rhh.th.f
2 rh...r..

Turn = 1.
  01234567
0 .....h..
1 ..r.t...
2 t.......
3 th...t.t
4 ..tt.f.r
5 .hfh...r
6 .f..hhf.
7 .t...f.t
8 .tr.thf.
9 t.....ff
0 r...tth.
1 h...th.f
2 rhh.r...

Turn = 2.
  01234567
0 ......h.
1 ...tt...
2 th......
3 t....t.t
4 ..tt.f.t
5 .htth..r
6 .f...hf.
7 .t...f.t
8 .rr.thf.
9 r.....ff
0 r...tth.
1 h...th.f
2 rhh.t...

Turn = 3.
  01234567
0 .......h
1 .h.tt...
2 t.......
3 t....t.t
4 ..ttht.t
5 .htt....
6 .f...hfr
7 .t...f.t
8 rr..ttt.
9 rr....ff
0 ....tth.
1 h...th.f
2 rhh.t...

Turn = 4.
  01234567
0 .h.....h
1 ...tt...
2 t.......
3 t....t.t
4 ..tttt.t
5 .htt....
6 .t...hfr
7 rt...f..
8 r...tttr
9 r.....tf
0 .r..tth.
1 r...tt.f
2 rhh.t...

Turn = 5.
  01234567
0 .h.....h
1 ...tt...
2 t.......
3 t....t.t
4 ..tttt.t
5 .ttt....
6 rt...hf.
7 .t...t.r
8 r...tttr
9 .r....rr
0 ....ttt.
1 rr..tt.f
2 rhh.t...

Turn = 6.
  01234567
0 .h.....h
1 ...tt...
2 t.......
3 t....t.t
4 ..tttt.t
5 rttt....
6 .t...hf.
7 .t...t.r
8 ....tttt
9 r.r...tt
0 ....ttt.
1 rr..tt.f
2 rrh.t...

Turn = 7.
  01234567
0 .h.....h
1 ...tt...
2 t.......
3 t....t.t
4 r.tttt.t
5 .ttt....
6 .t...hf.
7 .t...tr.
8 ....tttt
9 ...r..tt
0 r...ttt.
1 rr..tt.f
2 rrr.t...

*** Darwin 14x11 ***
Turn = 0.
  01234567890
0 ..r...hfh..
1 .........t.
2 ff.........
3 .f....tr.r.
4 ..h.....h..
5 f....f..tr.
6 ..rf....h..
7 hh.....f...
8 .rhthfrr..h
9 .thf......t
0 f..tf.....f
1 .t.tt..hr.f
2 ........t..
3 .f......t..

Turn = 2.
  01234567890
0 ....rh.fh..
1 .........t.
2 ff.........
3 .f....t....
4 ....h...h..
5 f....f.rtr.
6 ...fh.rrtt.
7 .hr....r...
8 .ttt.f....h
9 rtht......t
0 f..tf.....t
1 .t.tt.r...f
2 .......tt..
3 .f......t..

Turn = 4.
  01234567890
0 ....r..fh..
1 .....r...t.
2 ff.........
3 .f....t....
4 ....h.r.h..
5 f....frrtt.
6 ...f...rrt.
7 .hr.....r..
8 .ttt.f....t
9 ttht......t
0 ..rtt.....t
1 .t.trr....t
2 .......tt..
3 .f......t..

Turn = 6.
  01234567890
0 ...r...fh..
1 .........t.
2 ff..h......
3 .f...rt....
4 ......r.t..
5 f....frrtt.
6 ...f...rtt.
7 .tt.......r
8 .ttt.f....t
9 tttt......t
0 ..r.rrr...t
1 .t.rr.....t
2 .......tt..
3 .f......t..

*** Darwin 11x9 ***
Turn = 0.
  012345678
0 f.......f
1 .fh..tr..
2 .h......f
3 r...t.t..
4 .ff....f.
5 .r...f...
6 ff..h....
7 ..h...t..
8 ...r..rh.
9 ..hf..tht
0 f....r...

Turn = 1.
  012345678
0 f.h.....f
1 .f...tt..
2 h.......f
3 .r..t.t..
4 .ff....f.
5 .r..hf...
6 f.r......
7 .h....r..
8 ..r...th.
9 ..hf..tht
0 f....r...

Turn = 2.
  012345678
0 f.h.....f
1 .f...tt..
2 h.......f
3 ..r.t.t..
4 .ff.h..f.
5 .....f...
6 fr.r.....
7 h.....r..
8 .r....th.
9 ..hf..tht
0 f...r....

Turn = 3.
  012345678
0 f.h.....f
1 .f...tt..
2 h.......f
3 ...rt.t..
4 .ff.t..f.
5 .....f...
6 f...r....
7 hr....r..
8 r....r.h.
9 ..hf..ttt
0 f..r.....

Turn = 4.
  012345678
0 f.h.....f
1 .f...tt..
2 h.......f
3 ...rr.t..
4 .ffr...f.
5 .....f...
6 f....r...
7 h........
8 rr..r.rh.
9 ..hf..ttt
0 f.r......

Turn = 5.
  012345678
0 f.h.....f
1 .f...tt..
2 h.......f
3 ...r..t..
4 .frrr..f.
5 .....f...
6 f.....r..
7 r........
8 r..r..rh.
9 .rhf...tt
0 fr....r..

*** Darwin 11x14 ***
Turn = 0.
  01234567890123
0 ..t......t..h.
1 tf.........f..
2 ......t.f.....
3 .hr.f........t
4 .r.r.t.f.h....
5 tr..h........t
6 ....tt.t.r.f..
7 ...f......t...
8 ..r.r.r...rth.
9 t.th.....rt...
0 .....h...ht...

Turn = 3.
  01234567890123
0 ..t......tt...
1 tf.........f..
2 ......t.f.....
3 rr..fr...r...t
4 r...r..f....h.
5 tt..h.....r.ht
6 ....rt.t..rf..
7 ...fr.........
8 ...t.....r.t..
9 t.tt.....tt...
0 ..h...r...t...

Turn = 6.
  01234567890123
0 r.t..r...rt...
1 rt.......r.f..
2 ......t.f.r.h.
3 ....f.....r..t
4 rr.r...f.....t
5 r.r..........t
6 r...r..t...f..
7 ...trr........
8 ...t......tt..
9 t.tt.....tt...
0 h..r......t...

*** Darwin 14x15 ***
Turn = 0.
  012345678901234
0 .th............
1 .........f....r
2 .ht...h..h.....
3 .......h.rf....
4 .......trr....f
5 ......hr.....t.
6 ....ht.....r..t
7 ..f....f..rth..
8 ..h..t.h.......
9 f...h.....f....
0 ..........t.t..
1 t........th..r.
2 ...f...rr.....h
3 ..h.r.......t.f

Turn = 1.
  012345678901234
0 .th............
1 .........f....r
2 .ht..h..hr.....
3 ........hrf....
4 .......rr.....f
5 ......h......t.
6 ...h.t.r...r..t
7 ..f....f.r.....
8 ..h.ht.....rh..
9 f......h..f....
0 ..........t.tr.
1 t........tt...h
2 ..hfr.r........
3 ........r...t.f

Turn = 2.
  012345678901234
0 .th............
1 .........r.....
2 .ht.h..h.r....r
3 ........hrf....
4 ......rr......f
5 .......h.....t.
6 ..h..t.r......t
7 ..f.h...rr.r...
8 ..h..t.........
9 f.........frhr.
0 .......h..t.t.h
1 t.h.r....tt....
2 ...f.r.........
3 ........r...t.f

Turn = 3.
  012345678901234
0 .th............
1 ........rr.....
2 .tth..h........
3 ........rrf...r
4 .....rr.......f
5 ........h....t.
6 .h..ht...r....t
7 ..f....rr......
8 ..h..t.....r.r.
9 f.........f.h.h
0 ..h.r.....ttt..
1 t......h.tt....
2 ...fr..........
3 .......r....t.f

Turn = 4.
  012345678901234
0 .tt......r.....
1 .......r.......
2 .tth.h.........
3 ........rrf...r
4 ....rr........r
5 ....h....r...t.
6 h....t...r....t
7 ..f..........r.
8 ..h..t.rr.....h
9 f.h.r.....frt..
0 ..........ttt..
1 t........tt....
2 ...rr..h.......
3 ......r.....t.f

Turn = 5.
  012345678901234
0 .tt......r.....
1 ......r........
2 .tthh..........
3 ..........f...r
4 ...rr...rr....r
5 ....h....rr..t.
6 h....t.......rt
7 ..f...........h
8 ..h.rt.........
9 f.h....rr.trr..
0 ..........trr..
1 t........tt....
2 ..rr...........
3 .....r.h....t.f

*** Darwin 11x13 ***
Turn = 0.
  0123456789012
0 ........f..t.
1 h...t.h.....t
2 ff.h.....f...
3 .....t....ft.
4 .r......t.f.t
5 ..hh.....r...
6 h.ft.h..hr...
7 .hf.rh...t...
8 r...hr..r....
9 .hh.t.r..h..h
0 .....ft..tt..

Turn = 2.
  0123456789012
0 h.......f..t.
1 ....th......t
2 ffh......f...
3 .....t....ft.
4 h.......t.f.t
5 .rht....t....
6 .rfth.h......
7 .hrr...rrr...
8 ..h..hr......
9 ....tt.rr.t..
0 r....tt..tt..

Turn = 4.
  0123456789012
0 h.......f..t.
1 ....th......t
2 ffh......f...
3 h....t....tt.
4 ........t.f.t
5 r.rr....t....
6 .rtrhh..r....
7 .hrr.........
8 .r...rrr.....
9 ....tt.r.rt..
0 r....tt.ttt..

Turn = 6.
  0123456789012
0 h.......f..t.
1 ....tt......t
2 ffh......f...
3 h..r.t....tt.
4 .rr.....t.t.t
5 .h.....rr....
6 r.rthhr......
7 ..rt.........
8 r....rr......
9 ....rtr..rt..
0 r....tt.ttt..

*** Darwin 11x11 ***
Turn = 0.
  01234567890
0 .t.f.r.rfh.
1 t...t..f.r.
2 ..t.h....h.
3 ....ht..rh.
4 ........t.f
5 t..h.ft....
6 hh.h.h....f
7 ...h.......
8 t..r.......
9 ...rfhrr...
0 f...r.f....

Turn = 2.
  01234567890
0 .t.f..r.fh.
1 t...t..r.rr
2 ..t.t..rrh.
3 ..h..t.....
4 ...h....t.f
5 th.h.tt....
6 .hh..h....f
7 ...........
8 t....r.....
9 .r..f.r....
0 f.r..hrr...

Turn = 4.
  01234567890
0 .t.f...rrr.
1 t...t..rrr.
2 ..thtt...h.
3 h..h.t....r
4 ........t.f
5 tt...tt....
6 ..h.tt....f
7 ...........
8 t......r...
9 r...rr.r...
0 rr...rr....

Turn = 6.
  01234567890
0 .t.f...rr..
1 t..tt.r.rr.
2 ..tttt...h.
3 h....t.r...
4 ........t.r
5 tt...tt...r
6 ...htt....r
7 ....r..r...
8 r........r.
9 r..r.......
0 rr..r.r....

*** Darwin 12x8 ***
Turn = 0.
  01234567
0 .....hr.
1 .f..f.h.
2 h..f....
3 ht.f.rh.
4 h.h...ff
5 r....r..
6 r......f
7 .f.th.tr
8 ...t..ht
9 ..r...ht
0 ...f..tf
1 .rfrf.f.

Turn = 1.
  01234567
0 .....hr.
1 .f..fh..
2 .h.f....
3 hthfr.h.
4 h.....ff
5 r.....r.
6 .......t
7 rf.th.tt
8 ...t.h.t
9 .....h.t
0 ..rf..tf
1 .rfr.rf.

Turn = 2.
  01234567
0 .....h.r
1 .f..fh..
2 ..hf....
3 hthrr.h.
4 h.....ff
5 .......r
6 r......t
7 .f.tt.tt
8 r..th..t
9 ....h..t
0 ..rf..tf
1 rr..rrr.

Turn = 3.
  01234567
0 ......hr
1 .f..fh..
2 ..hf....
3 tthrr.h.
4 ......ff
5 h......r
6 .......t
7 rf.tt.tt
8 ...tt..t
9 r..h...t
0 ...f..rt
1 rrr.rrr.

Turn = 4.
  01234567
0 ......h.
1 .f..fh.r
2 ..hf....
3 tth...h.
4 ...rr.fr
5 .......r
6 h......t
7 .f.tt.tt
8 r..tt..t
9 ...t...t
0 rr.fr.rt
1 r.r..rr.

Turn = 5.
  01234567
0 .......h
1 .f..fh..
2 ..hf...r
3 tth...h.
4 ......fr
5 ...rr..t
6 .......t
7 hf.tt.tt
8 ...tt..t
9 rr.t...t
0 r..ttr.t
1 rr...rr.

Turn = 6.
  01234567
0 .......h
1 .f..fh..
2 ..tf....
3 ttt...hr
4 ......fr
5 .......t
6 ...rt..t
7 .f.tt.tt
8 hr.tt..t
9 r..t...t
0 .r.trr.t
1 rr..r.r.

Turn = 7.
  01234567
0 .......h
1 .f..fh..
2 ..tt....
3 ttt...hr
4 ......fr
5 .......t
6 ...rr..t
7 .r.tr.tt
8 hr.tt..t
9 r..t...t
0 ..rtrr.t
1 rr.r...r

Turn = 8.
  01234567
0 .......h
1 .f..fh..
2 ..tt....
3 ttt...rr
4 ......fr
5 .......r
6 ...rrr.t
7 .r.t..tt
8 rr.tt..t
9 r..t...t
0 r.rrr..t
1 ..rr.r.r

*** Darwin 10x13 ***
Turn = 0.
  0123456789012
0 h.....r.t..r.
1 hf.f.....t..t
2 .rtfr.r......
3 ....rh.rt....
4 rh..h..t.f.h.
5 h..r.........
6 .........ff..
7 ....h.tfr....
8 t.....f..h...
9 .h.r...t....h

Turn = 1.
  0123456789012
0 h....r..t.r..
1 .f.f..r..t..t
2 h.trrr.......
3 .r..r.r.t..h.
4 r.h..h.t.f...
5 ....r........
6 h........ff..
7 .....htrr....
8 th....t...h.h
9 ...r...t.....

Turn = 2.
  0123456789012
0 h...r.r.tt...
1 .f.f.r...t..t
2 ..rrr......h.
3 r....rr.t....
4 rr.h..ht.f...
5 .....r.......
6 .........ff..
7 hh...hrrr...h
8 t.....t....h.
9 ....r..t.....

Turn = 3.
  0123456789012
0 h..r.rr.tt...
1 .f.fr....t.ht
2 ..r...r......
3 r.r..r..t....
4 r...h.ht.f...
5 .r....r......
6 .h......rff.h
7 h....htr.....
8 t.....t.....h
9 .....r.t.....

Turn = 4.
  0123456789012
0 h.r.rr.rtt.h.
1 .f.f..r..t..t
2 .r...r.......
3 .r......t....
4 .rr..htt.f...
5 .r.....rr...h
6 .r.......ff..
7 t....ht......
8 t.....tr....h
9 ......rt.....

Turn = 5.
  0123456789012
0 hr..r.rrr.rh.
1 .f.f.rr..t..t
2 r............
3 ..r.....t....
4 .r...httrf..h
5 .rr....r.....
6 r........ff..
7 t....ht......
8 t.....tr....h
9 ......rr.....

Turn = 6.
  0123456789012
0 rr...rrr.rrr.
1 .f.f.r.r.t..t
2 r............
3 .r.r....r...h
4 .....httrf...
5 .r.....t.....
6 r.r......ff..
7 t....ht......
8 t.....tr....h
9 ......rr.....

Turn = 7.
  0123456789012
0 rr...r.r.tr.r
1 .f.f.rr.rt..t
2 .r..........h
3 r...r..rr....
4 .r...ttt.f...
5 .......t.....
6 r........ff..
7 r.r..tt......
8 t.....rr....h
9 ......rr.....

Turn = 8.
  0123456789012
0 rr...rr..rr.t
1 .r.f....rr..t
2 .r...rr.r...h
3 .r...rr......
4 r....ttt.f...
5 .......t.....
6 r........ff..
7 .r...tt......
8 t.r...rr....h
9 ......rr.....

Turn = 9.
  0123456789012
0 rr..rr..rr..t
1 .r.f....rr..t
2 .r...rr.r...h
3 .r...tr......
4 .....ttt.f...
5 r......t.....
6 r........ff..
7 ..r..ttr.....
8 t.....tr....h
9 ..r...r......

Turn = 10.
  0123456789012
0 rr.rr..rr...t
1 r..f....r.r.t
2 r...r..rr...h
3 ..r..tr......
4 .....trt.f...
5 r......t.....
6 .......r.ff..
7 r..r.ttr.....
8 t.....t.....h
9 ..r...t......

*** Darwin 8x15 ***
Turn = 0.
  012345678901234
0 f.f.rh....tf...
1 rh.t..h..t.t..h
2 ....f.h....r.th
3 .h.t....f.f...f
4 r..ft..tt......
5 ..ff.t.frfr.rr.
6 .th..f.t.thf...
7 t..hrh...f..h..

Turn = 2.
  012345678901234
0 rrf..r.h..tf..h
1 r..t.....t.t...
2 ....f.h......tt
3 ...t....f.r..rf
4 ...tt.ttt.rr...
5 rhffrt.tttr....
6 .tt..t.t.thf...
7 th.h.....th....

Turn = 4.
  012345678901234
0 .rr....r.htt..h
1 r.rt.....trt.r.
2 ....f.....r...t
3 ...t..h.t....tt
4 ...tt.ttt......
5 .tfttt.trrrr...
6 rtt..t.t.trr...
7 rrh......tt....

Turn = 6.
  012345678901234
0 .rrr....rrtt.rh
1 ...r.....trt...
2 ....f.....r...t
3 r..t..t.t.r..tt
4 ...tt.ttt......
5 .ttttt.tt.r....
6 rtt..t.tttt....
7 rrr......ttr...

*** Darwin 11x12 ***
Turn = 0.
  012345678901
0 t.r.f.rh.t..
1 hfrf.f......
2 h.....f.f...
3 ....f.t.ft.h
4 .t...tr.tf.t
5 ......t.t.h.
6 t..tr...h.r.
7 .r....ht.rth
8 ...rh......f
9 ....t.ft.th.
0 ....f.t.r...

Turn = 2.
  012345678901
0 rr.rf..h.t..
1 tf.r.fr.....
2 .......rt...
3 ....f.t.tt.t
4 ht...tt.ttrt
5 ......t.t..h
6 t..t......h.
7 ...rrh.tt.th
8 ...r.r.....f
9 ....t.tt.tt.
0 ....f.t...r.

Turn = 4.
  012345678901
0 rrr.f..h.t..
1 r...r.r.....
2 .r....r.r.r.
3 ....f.r.tt.t
4 .t...tr.tttt
5 h.....r.t..t
6 t..t.......h
7 ...h...tt.tt
8 ...rr..r...f
9 ...rr.tt.tt.
0 ....f.t...t.

*** Darwin 13x12 ***
Turn = 0.
  012345678901
0 ......f....t
1 .....r.f...r
2 .......r...r
3 ...trhh..r..
4 t..f...r...f
5 ....f.......
6 ...rff.trh..
7 ....h...rh..
8 .......h.h..
9 h..h..hft..t
0 .r....h.....
1 ......rt.fr.
2 .h.......h..

Turn = 3.
  012345678901
0 .....r.r...t
1 ......r.rr..
2 ....r.......
3 .......rr..r
4 t..rr.......
5 ....fh.....r
6 r..rffr.....
7 .r.h...r.h..
8 .r.....rr..h
9 h.....httr.t
0 ......h.....
1 .......t.f.r
2 .h.....r...r

Turn = 6.
  012345678901
0 ....r.r.rr.t
1 .......r....
2 ............
3 ............
4 rr....r.....
5 rr.rrhr.....
6 r..rr..rr..r
7 .r...r...r.r
8 ......r..r.r
9 h.....rr.h.t
0 ......h....r
1 .......trr..
2 .h......rr.r

Turn = 9.
  012345678901
0 .....r.....t
1 ............
2 .r....r.....
3 .......rrr..
4 rr....r.r...
5 r....r.....r
6 r.r.......r.
7 ...rr......r
8 .....rrr...r
9 h..r..rrr.r.
0 .....rr..r.r
1 .......tttrr
2 .h......t.r.

*** Darwin 14x10 ***
Turn = 0.
  0123456789
0 ..........
1 ..........
2 h........t
3 h..th.r...
4 .......f.f
5 r.r.....r.
6 ...r...h..
7 ...t...f.t
8 h.r.......
9 ..h.....r.
0 .h.....t.t
1 rfh..ff...
2 rr....fr..
3 ........r.

Turn = 1.
  0123456789
0 ..........
1 ..........
2 h........t
3 .h.thr....
4 .......f.f
5 .r.....r..
6 ..r.r..h..
7 h..t...f.t
8 .rh.......
9 ..........
0 ..h....trt
1 rrh..ff...
2 rr....f...
3 .......rr.

Turn = 2.
  0123456789
0 ..........
1 ..........
2 .........t
3 h.htrr....
4 .......f.f
5 ..r...r...
6 h....r.h..
7 ..tt...f.t
8 r.h.......
9 ..........
0 r.hh...ttt
1 rr...ff...
2 .r....f...
3 .......rr.

Turn = 3.
  0123456789
0 ..........
1 ..........
2 .........t
3 ..htrr....
4 h......f.f
5 h..r.r....
6 ......rh..
7 ..tt...f.t
8 r.t.......
9 r.h.......
0 r...h..ttt
1 r....ff...
2 ..r...f...
3 ......r.r.

Turn = 4.
  0123456789
0 ..........
1 ..........
2 .........t
3 ..httt....
4 h......f.f
5 h...rr....
6 ......rr..
7 ..tt...r.t
8 r.t.......
9 r.h.......
0 r....h.ttt
1 r....ff...
2 ...r..f...
3 .....r.r..

Turn = 5.
  0123456789
0 ..........
1 ..........
2 .........t
3 ..httt....
4 h....r.f.f
5 h...r.....
6 ......rr..
7 ..tt..r..t
8 r.t.......
9 r.t.......
0 rr....tttt
1 .....ff...
2 ....r.f...
3 ....r.r...

Turn = 6.
  0123456789
0 ..........
1 ..........
2 .........t
3 ..httr....
4 h...rr.f.f
5 h.....r...
6 ........r.
7 ..tt.r...t
8 r.t.......
9 r.t.......
0 r.r...tttt
1 .....ff...
2 .....rf...
3 ...r.r....

Turn = 7.
  0123456789
0 ..........
1 ..........
2 .....r...t
3 ..ttrr....
4 h...r.rf.f
5 h.........
6 .........r
7 ..ttr....t
8 r.t.......
9 .rt.......
0 .rt...tttt
1 .....ff...
2 .....r.r..
3 ..r.r.....

Turn = 8.
  0123456789
0 ..........
1 .....r....
2 .....r...t
3 ..ttr.r...
4 h...r..f.f
5 h.........
6 .........t
7 r.trr....t
8 ..t.......
9 .rr.......
0 .rr...tttt
1 .....ff...
2 ......r.r.
3 .r.r......

Turn = 9.
  0123456789
0 .....r....
1 .....r....
2 ......r..t
3 ..tt.r....
4 h..r...f.f
5 h.........
6 r........t
7 ..ttt....t
8 ..t.......
9 .rr.......
0 ...r..tttt
1 .r...ft...
2 ......t..r
3 r.r.......

Turn = 10.
  0123456789
0 .....r....
1 .....rr...
2 .........t
3 ..tt..r...
4 h.r....f.f
5 r.........
6 r........t
7 ..ttt....t
8 ..t.......
9 ..t.......
0 .r..r.tttt
1 .....ft...
2 .r....t..r
3 rr........

*** Darwin 9x15 ***
Turn = 0.
  012345678901234
0 h.............r
1 ....t...rf.f..r
2 h..r.f...r...t.
3 ft.f..h...h.h..
4 ...h.......t.t.
5 .trt.t..r.fr...
6 t.......rtff...
7 ...t.t.hhf....h
8 .f...r...r..f..

Turn = 3.
  012345678901234
0 ...r..h.....r..
1 h...t.....rf.t.
2 t....f....r..t.
3 tt.f....r....h.
4 h......h.r.ttt.
5 .ttt.t...rtt...
6 t........ttt...
7 ...t.tt..t....h
8 .f...tr.....f..

Turn = 6.
  012345678901234
0 .....rr..rr....
1 t...t..h....tt.
2 t....f.......t.
3 tt.f......rr.t.
4 t.........rttt.
5 .ttt.t....r.r.r
6 t........ttt...
7 ...t.tt..t....h
8 .f...tt.....f..

Turn = 9.
  012345678901234
0 .......r..r.r..
1 t...tt.hr...tt.
2 t....t.......t.
3 tt.f.......r.tr
4 t..........rrt.
5 .ttt.t....t.r..
6 t........ttt.r.
7 ...t.tt..t....h
8 .f...tt.....f..

*** Darwin 8x9 ***
Turn = 0.
  012345678
0 thh..h..h
1 f..fh....
2 fh..f.t.h
3 ...h.....
4 f..fttr..
5 .......ft
6 .r.ffff.f
7 ht..t.f..

Turn = 1.
  012345678
0 th.hh...h
1 f..f.h..h
2 f.h.f.t..
3 ....h....
4 f..fttt..
5 .......ft
6 .r.ffff.f
7 hr..t.f..

Turn = 2.
  012345678
0 th.hh...h
1 t..f..t.h
2 t..hf.t..
3 .....h...
4 f..fttt..
5 .......ft
6 .r.ffff.f
7 rr..t.f..

Turn = 3.
  012345678
0 th.hh...h
1 t..f..t.h
2 t..hf.t..
3 ......t..
4 f..tttt..
5 .......tt
6 ..rffff.f
7 rr..t.f..

Turn = 4.
  012345678
0 tt.hh...h
1 t..f..t.h
2 t..hf.t..
3 ......t..
4 f..tttt..
5 .......tt
6 rrr.tff.f
7 ...rt.f..

Turn = 5.
  012345678
0 tt.hh...h
1 t..f..t.h
2 t..hf.t..
3 ......t..
4 f..tttt..
5 rr.....tt
6 ...rtff.t
7 ...rt.f..

Turn = 6.
  012345678
0 tt.hh...h
1 t..f..t.h
2 t..hf.t..
3 ......t..
4 rr.tttt..
5 r......tt
6 ...rrff.t
7 ..r.t.f..

Turn = 7.
  012345678
0 tt.hh...h
1 t..f..t.h
2 t..hf.t..
3 .r....t..
4 r..tttt..
5 r...r..tt
6 ...r.ff.t
7 .r..t.f..

*** Darwin 13x9 ***
Turn = 0.
  012345678
0 th.f.r...
1 .h....h.t
2 rt.f..t..
3 ........h
4 rf..h.t..
5 h.th.....
6 ......h..
7 ......r..
8 .........
9 .....r...
0 .fr...hr.
1 h...f.rf.
2 fhh....rt

Turn = 3.
  012345678
0 r..f...t.
1 rt..h..tt
2 .t.f..t.t
3 .........
4 rf....t..
5 r.ttt....
6 ...h.....
7 .......r.
8 .........
9 ..r...r..
0 rr....r.r
1 hh..f..f.
2 f....h.rr

Turn = 6.
  012345678
0 ..r....t.
1 .t.r..ttt
2 rt.f..t.t
3 r........
4 .t....tr.
5 .tttt....
6 h........
7 r........
8 .........
9 r.......r
0 ..r....rr
1 rr..f..rr
2 r.....rr.

Turn = 9.
  012345678
0 .....r.t.
1 .r....trt
2 rr...ttrt
3 ..rr.....
4 .t....t..
5 .tttt....
6 r........
7 .r.......
8 .r......r
9 .........
0 rr...rrrr
1 ....rr.r.
2 ...r.r...

*** Darwin 13x11 ***
Turn = 0.
  01234567890
0 .h.t....tr.
1 .h....r....
2 f.t.f..t...
3 .h...f.....
4 .r....f....
5 t..f..t...t
6 ...r.h.r.f.
7 .f....tf.fh
8 ..t.rf.f...
9 fthrr..fh..
0 ....h......
1 ......t.t.t
2 .f.t.t.h...

Turn = 3.
  01234567890
0 ...t.r..t..
1 .h.........
2 ftt.f..t...
3 .t...f.r.r.
4 ......f....
5 tt.fr.t...t
6 ..h......fh
7 .f..r.tf.f.
8 ..tr.f.f...
9 tttr...f...
0 ........t..
1 ......t.t.t
2 .f.ttt....h

Turn = 6.
  01234567890
0 ..rr....t..
1 .t.....r...
2 ftt.rr.....
3 .t..rf.....
4 ....r.t....
5 tt.f..t..rt
6 t........tt
7 .fr...tt.f.
8 ...t.f.t...
9 tttt...t...
0 ........t..
1 ......t.t.t
2 .f.ttt....t

*** Darwin 9x11 ***
Turn = 0.
  01234567890
0 .t.r.......
1 ....f..r.t.
2 t.....htt..
3 ..hrt....tf
4 t.......hft
5 ...r...f.r.
6 .....hr....
7 r...ff....t
8 ..t.....f.t

Turn = 2.
  01234567890
0 .t.....r...
1 ....f....t.
2 t..rh..tt..
3 h...t....tf
4 t.......htt
5 ...r.r.f..r
6 .....h..r..
7 ..t.ff....t
8 ..t.....f.t

Turn = 4.
  01234567890
0 .t.......r.
1 ....f....t.
2 t.h....tt..
3 h...t....tt
4 t..r....ttt
5 ......r...t
6 .....h.r..r
7 ..trff....t
8 ..t.....f.t

Turn = 6.
  01234567890
0 .t........r
1 ....f....t.
2 th.....tt..
3 t...t....tt
4 t.......ttt
5 ........r.t
6 ...r.h....t
7 ..t.ff....t
8 ..tt...rf.t

Turn = 8.
  01234567890
0 .t.........
1 ....f....tt
2 tt.....tt..
3 t...t....tt
4 t.......ttr
5 .........rr
6 .....h....t
7 ..ttff....t
8 ..tt..r.f.t

Turn = 10.
  01234567890
0 .t.........
1 ....f....tt
2 tt.....tt..
3 t...t....tt
4 t.......ttr
5 .........rt
6 .....h....t
7 ..tttf....t
8 ..ttr...f.t

*** Darwin 9x15 ***
Turn = 0.
  012345678901234
0 rfh..rr.h.r.r..
1 .fh........t...
2 .....tfh...h...
3 h..r..h..t..h..
4 r...f..hr......
5 .r.............
6 t.....t.....r.h
7 ...t....f......
8 .....h....tr.h.

Turn = 1.
  012345678901234
0 rfh..rrh.r...r.
1 .f.........t...
2 ..h..tf.h.h....
3 h...rh..rt...h.
4 .r..f..........
5 r......h....r.h
6 t.....t........
7 ...t....f......
8 ....h.....tr.h.

Turn = 2.
  012345678901234
0 rrh..rrhr.....r
1 .f.........t...
2 .....tf.rhh....
3 .rh.rr...t....h
4 h...f.......r.h
5 r..............
6 r.....tt.......
7 ...t....f......
8 ...h......tt.h.

Turn = 3.
  012345678901234
0 rrr..rrrr.....r
1 .f......r..t...
2 .r...tf..hh....
3 ....r....t..r.h
4 h.h.fr........h
5 r..............
6 .r....tt.......
7 ...t....f......
8 ...t......tt.h.

Turn = 4.
  012345678901234
0 .rr...rrr......
1 rr...rr....t..r
2 .r...tf..hh.r..
3 .....r...t....h
4 h...f.........h
5 r.h..r.........
6 ..r...tt.......
7 ...t....f......
8 ...t......tt.h.

Turn = 5.
  012345678901234
0 .r...rr.r......
1 .rr..rr....tr..
2 rr...rr..th...r
3 ......r..t....h
4 h...f.........h
5 ..h............
6 r..r.ttt.......
7 ...t....f......
8 ...t......tt.h.

Turn = 6.
  012345678901234
0 r...rr.r....r..
1 r....rr....t...
2 r.r...r..tt...r
3 r....r.r.t....r
4 ....f.........h
5 h..............
6 ..h.rttt.......
7 r..t....f......
8 ...t......tt.h.

Turn = 7.
  012345678901234
0 r..rr.r.....r..
1 r....r.r...t...
2 r....r...tt...r
3 ..r.....tt....r
4 r...fr........r
5 ...............
6 h...rr.t.......
7 ..tt..r.f......
8 r..t......tt.h.

Turn = 8.
  012345678901234
0 r.rr.r.......r.
1 r....r..r..t...
2 ....r....tt...r
3 r.......tt....r
4 ..r.f.........r
5 r....r.........
6 ....r.rt.......
7 h.tt....f......
8 r..t..r...tt.h.

*** Darwin 11x13 ***
Turn = 0.
  0123456789012
0 t.t..f..t....
1 ....r.h.h....
2 ...........h.
3 h.ht.........
4 ..rtf.f....t.
5 t.t.h...f....
6 ..hfh.r.t.ft.
7 .........t...
8 .htf..rf..t.t
9 ...h.h..h....
0 rh.........h.

Turn = 3.
  0123456789012
0 t.t..f..t....
1 ...h....t....
2 ............h
3 .httr........
4 ..trr.f....t.
5 t.t....ht....
6 h..fh...t.tt.
7 r........t...
8 .ttf..rf..t.t
9 .....rr......
0 .h.h..r.h....

Turn = 6.
  0123456789012
0 t.t..f..t....
1 h.......t....
2 ............h
3 .tttt........
4 ..ttt.f....t.
5 t.t....tt....
6 t..fh...t.tt.
7 t........t...
8 .ttt...r.rt.t
9 ....r..r.....
0 .h.rrh.......

Turn = 9.
  0123456789012
0 t.t..f..t....
1 t.......t....
2 ............h
3 .tttt........
4 ..ttt.f....t.
5 t.t....tt....
6 t..fh...t.rt.
7 t........tr..
8 .ttt.....r.rt
9 ..t.......r..
0 .h.rrh.......

*** Darwin 11x8 ***
Turn = 0.
  01234567
0 ......f.
1 .tf..f.r
2 ......ht
3 ....thrr
4 .f..h..f
5 ...tf.t.
6 ..tt...r
7 ........
8 ..fthff.
9 tf.t.r..
0 tt...rh.

Turn = 2.
  01234567
0 ......f.
1 .tf..rr.
2 .....htr
3 ....t..r
4 .f...hrf
5 ...tf.t.
6 ..tt.r..
7 ........
8 ..fttff.
9 tt.t...r
0 tt....rr

Turn = 4.
  01234567
0 ......f.
1 .ttrrh..
2 ......tt
3 ....t..t
4 .f...h.f
5 ...tt.r.
6 ..ttt...
7 ......r.
8 ..ttttt.
9 tt.t...r
0 tt....rr

Turn = 6.
  01234567
0 ....rhf.
1 .rrr....
2 ......tt
3 ....t..t
4 .f....tt
5 ...tt...
6 ..ttt.r.
7 ......t.
8 ..tttttr
9 tt.t.r..
0 tt....r.

*** Darwin 12x9 ***
Turn = 0.
  012345678
0 .........
1 ..hr..r.h
2 .f.....hr
3 hh.f.ftrh
4 .......ff
5 tt.tf.h.t
6 .....rf.f
7 .t..ttf..
8 ff.rtrrf.
9 t...t...h
0 .rrr.hhf.
1 .ff.ft...

Turn = 3.
  012345678
0 ........h
1 h.......r
2 hf....t.r
3 .h.rrtrrr
4 ......rr.
5 tt.rt.rrt
6 ...r...rf
7 .t..ttf.r
8 ft..tt.r.
9 tt..t....
0 .r..rr.f.
1 .rr.frr.h

Turn = 6.
  012345678
0 .......r.
1 h......r.
2 hf...rrr.
3 .h...rr..
4 ...rrr..r
5 trrrtr.tt
6 .....t.tt
7 .t..tttt.
8 tt..tt..r
9 tt..t....
0 rt..t..rr
1 r...rr.rr

*** Darwin 11x11 ***
Turn = 0.
  01234567890
0 ..t...r..t.
1 ffh..f.f...
2 ...h.r..f.f
3 ft....f.tr.
4 ..f..t..h.h
5 .h.tf.r..r.
6 .ff....f...
7 ..h...t.ft.
8 .rff....tf.
9 ..f.....f.f
0 .r.h..r..ht

Turn = 3.
  01234567890
0 ..t......t.
1 ff....rf...
2 ....hrr.t.f
3 tth...t.t.r
4 .hf..tt...r
5 ...tt......
6 .frr...f.r.
7 h.....t.rrh
8 ..r.....tf.
9 ..fr....t.t
0 ....rrr..ht

Turn = 6.
  01234567890
0 ..t......t.
1 ff......r..
2 ....rr..t.f
3 tth..tt.rrr
4 .rr..ttr...
5 ..rtt..r...
6 .f....rr...
7 h.....t.rr.
8 ....rr...rr
9 ..f..r....r
0 ..r..r.rrtt

Turn = 9.
  01234567890
0 ..t.r....t.
1 ff....r...r
2 ....r...tr.
3 tttt..t.ttr
4 ..t..ttt.r.
5 .rt.r..t...
6 ..r.r.tt.r.
7 h.....t....
8 ........r.r
9 ..rr...rrrr
0 r.r.....rr.

*** Darwin 8x8 ***
Turn = 0.
  01234567
0 .ft...rr
1 f.f...f.
2 .h.t..fr
3 ff.tffth
4 .r.h.rh.
5 rr....h.
6 r....r.h
7 .hf.f..r

Turn = 1.
  01234567
0 .tt...r.
1 f.f...fr
2 h..t..rr
3 fr.tttth
4 .rh..tt.
5 r.r....h
6 .r....rh
7 .hf.f..r

Turn = 2.
  01234567
0 .tt....r
1 f.f...fr
2 h..t..rr
3 fr.tttth
4 .rh..tt.
5 .r.r...h
6 ..r...rr
7 .hf.f..r

Turn = 3.
  01234567
0 .tt....r
1 f.t...rr
2 h..t..rr
3 f.rttttt
4 rh...tt.
5 ..r.r..r
6 ...r..rr
7 .hf.f.r.

Turn = 4.
  01234567
0 .tt....r
1 f.t..rr.
2 h..t..rr
3 f.rttttt
4 rh...tt.
5 ...r.rrr
6 ....r..r
7 .hf.fr..

Turn = 5.
  01234567
0 .tt....r
1 f.t.rr..
2 h..t..tr
3 f.r.tttr
4 h..r.trr
5 r...rrr.
6 .....rr.
7 .hf.rr..

Turn = 6.
  01234567
0 .tt....r
1 f.trr...
2 h..t..tr
3 f..rttrr
4 h....rrr
5 ...rrrr.
6 r....rr.
7 .hfrr...

Turn = 7.
  01234567
0 .tt....r
1 f.rrr...
2 h..t.rtt
3 f..rrrrr
4 h....rr.
5 ....rrr.
6 ...r..r.
7 rhrrrr..

Turn = 8.
  01234567
0 .tt.r...
1 f.tt.r.r
2 h..t..rt
3 f..rrrrt
4 h...rrr.
5 .....rr.
6 ..rr...r
7 rhr.rr..

Turn = 9.
  01234567
0 .tt.rr..
1 f.tt..rr
2 h..trrrr
3 f...r.r.
4 h..r.rr.
5 ..r..r..
6 ..r..r.r
7 rrr.rr..

Turn = 10.
  01234567
0 .ttr.rr.
1 f.ttrrrr
2 h..tr...
3 f....r.r
4 h.r.rr..
5 ...rr...
6 .r...r..
7 rrr.rr.r
